{
    "reference": {
        "docker": {
            "image": "registry.gitlab.com/hvanulsen/mock-server-deployment/mock-server:1.0",
            "uri": "/api/v1/mock-server:predict",
            "port": 3001
        }
    }
}